-- Merging decision tree log ---
manifest
ADDED from /Users/santiagosuarez/AndroidStudioProjects/roma/android/app/src/main/AndroidManifest.xml:1:1-39:12
INJECTED from /Users/santiagosuarez/AndroidStudioProjects/roma/android/app/src/main/AndroidManifest.xml:1:1-39:12
INJECTED from /Users/santiagosuarez/AndroidStudioProjects/roma/android/app/src/main/AndroidManifest.xml:1:1-39:12
INJECTED from /Users/santiagosuarez/AndroidStudioProjects/roma/android/app/src/main/AndroidManifest.xml:1:1-39:12
MERGED from [:firebase_auth] /Users/santiagosuarez/AndroidStudioProjects/roma/build/firebase_auth/intermediates/merged_manifests/debug/processDebugManifest/merged/AndroidManifest.xml:2:1-15:12
MERGED from [:cloud_firestore] /Users/santiagosuarez/AndroidStudioProjects/roma/build/cloud_firestore/intermediates/merged_manifests/debug/processDebugManifest/merged/AndroidManifest.xml:2:1-15:12
MERGED from [:firebase_core] /Users/santiagosuarez/AndroidStudioProjects/roma/build/firebase_core/intermediates/merged_manifests/debug/processDebugManifest/merged/AndroidManifest.xml:2:1-15:12
MERGED from [:firebase_core_web] /Users/santiagosuarez/AndroidStudioProjects/roma/build/firebase_core_web/intermediates/merged_manifests/debug/processDebugManifest/merged/AndroidManifest.xml:2:1-7:12
MERGED from [:google_sign_in] /Users/santiagosuarez/AndroidStudioProjects/roma/build/google_sign_in/intermediates/merged_manifests/debug/processDebugManifest/merged/AndroidManifest.xml:2:1-9:12
MERGED from [:google_sign_in_web] /Users/santiagosuarez/AndroidStudioProjects/roma/build/google_sign_in_web/intermediates/merged_manifests/debug/processDebugManifest/merged/AndroidManifest.xml:2:1-7:12
MERGED from [androidx.multidex:multidex:2.0.0] /Users/santiagosuarez/.gradle/caches/transforms-2/files-2.1/e1e7fd09c488576a681f4e8c81c01b67/AndroidManifest.xml:17:1-22:12
MERGED from [com.google.firebase:firebase-analytics:17.0.1] /Users/santiagosuarez/.gradle/caches/transforms-2/files-2.1/f4572b9572a62ec7c577de0c35963c34/AndroidManifest.xml:2:1-9:12
MERGED from [com.google.android.gms:play-services-measurement:17.0.1] /Users/santiagosuarez/.gradle/caches/transforms-2/files-2.1/2d60ff019c84e78305443ec42df9eaf1/AndroidManifest.xml:17:1-55:12
MERGED from [com.google.android.gms:play-services-measurement-api:17.0.1] /Users/santiagosuarez/.gradle/caches/transforms-2/files-2.1/f069c802c787dd4e956e5b4c12dce8a3/AndroidManifest.xml:17:1-36:12
MERGED from [com.google.android.gms:play-services-measurement-sdk:17.0.1] /Users/santiagosuarez/.gradle/caches/transforms-2/files-2.1/28ae533f394f8214b9c94321c30e8a75/AndroidManifest.xml:17:1-25:12
MERGED from [com.google.android.gms:play-services-measurement-impl:17.0.1] /Users/santiagosuarez/.gradle/caches/transforms-2/files-2.1/94fdb6e558a7f4c56d47a96d2b5aec6a/AndroidManifest.xml:17:1-40:12
MERGED from [com.google.firebase:firebase-iid:19.0.0] /Users/santiagosuarez/.gradle/caches/transforms-2/files-2.1/c2773839ebd2875acc9742b5c7a06e96/AndroidManifest.xml:17:1-47:12
MERGED from [com.google.android.gms:play-services-stats:17.0.0] /Users/santiagosuarez/.gradle/caches/transforms-2/files-2.1/32a04d25dfb4ec73bb57adb2fb9a585b/AndroidManifest.xml:2:1-9:12
MERGED from [com.google.firebase:firebase-auth:17.0.0] /Users/santiagosuarez/.gradle/caches/transforms-2/files-2.1/869b2d77646b04a917f84c1e2a39b6c4/AndroidManifest.xml:17:1-42:12
MERGED from [com.google.firebase:firebase-firestore:21.3.0] /Users/santiagosuarez/.gradle/caches/transforms-2/files-2.1/1a7dc1f2fc479a965f9ab8cfc01a1234/AndroidManifest.xml:2:1-26:12
MERGED from [com.google.firebase:firebase-auth-interop:18.0.0] /Users/santiagosuarez/.gradle/caches/transforms-2/files-2.1/008fe340a8bc098537822333278ad5d9/AndroidManifest.xml:2:1-10:12
MERGED from [com.google.firebase:firebase-common:19.3.0] /Users/santiagosuarez/.gradle/caches/transforms-2/files-2.1/034a74f2bb94dc75c22b8d45d7d73d48/AndroidManifest.xml:15:1-39:12
MERGED from [com.google.android.gms:play-services-auth:16.0.1] /Users/santiagosuarez/.gradle/caches/transforms-2/files-2.1/e2b23fcdd85a4a29f9b2a5a64779bbc9/AndroidManifest.xml:17:1-39:12
MERGED from [com.google.android.gms:play-services-measurement-sdk-api:17.0.1] /Users/santiagosuarez/.gradle/caches/transforms-2/files-2.1/c47fdf798b2e02ed8c0c8d1af4a0b830/AndroidManifest.xml:17:1-40:12
MERGED from [com.google.android.gms:play-services-measurement-base:17.0.1] /Users/santiagosuarez/.gradle/caches/transforms-2/files-2.1/5f7ad11e41755d51aaf7c9c9cd7fa355/AndroidManifest.xml:2:1-9:12
MERGED from [com.google.android.gms:play-services-flags:16.0.1] /Users/santiagosuarez/.gradle/caches/transforms-2/files-2.1/8c95c69ead1787578ce3a8e5ba34cfaf/AndroidManifest.xml:17:1-22:12
MERGED from [com.google.android.gms:play-services-auth-api-phone:16.0.0] /Users/santiagosuarez/.gradle/caches/transforms-2/files-2.1/0195387a8e0640f83fdd75d0e071e882/AndroidManifest.xml:2:1-7:12
MERGED from [com.google.android.gms:play-services-auth-base:16.0.0] /Users/santiagosuarez/.gradle/caches/transforms-2/files-2.1/cef87359e4ea0e75186e510a6fd4105c/AndroidManifest.xml:2:1-7:12
MERGED from [com.google.firebase:firebase-iid-interop:17.0.0] /Users/santiagosuarez/.gradle/caches/transforms-2/files-2.1/9a38c3388a88ef993c7306b906c5bc1a/AndroidManifest.xml:2:1-10:12
MERGED from [com.google.android.gms:play-services-base:17.0.0] /Users/santiagosuarez/.gradle/caches/transforms-2/files-2.1/5b4972036a094b60d85d5f422b1e06af/AndroidManifest.xml:17:1-29:12
MERGED from [com.google.android.gms:play-services-tasks:17.0.0] /Users/santiagosuarez/.gradle/caches/transforms-2/files-2.1/d7f9aaa60d5357176b27fff3a15c63cd/AndroidManifest.xml:2:1-9:12
MERGED from [com.google.firebase:firebase-measurement-connector:18.0.0] /Users/santiagosuarez/.gradle/caches/transforms-2/files-2.1/7a6d25290626f8dff476ded8cc133e8e/AndroidManifest.xml:17:1-25:12
MERGED from [com.google.android.gms:play-services-ads-identifier:17.0.0] /Users/santiagosuarez/.gradle/caches/transforms-2/files-2.1/412faed8471e5fd7395b9116c5a088f4/AndroidManifest.xml:17:1-24:12
MERGED from [com.google.android.gms:play-services-basement:17.0.0] /Users/santiagosuarez/.gradle/caches/transforms-2/files-2.1/b4e2c8acf6a0a2be62a3344707fef1e7/AndroidManifest.xml:17:1-28:12
MERGED from [androidx.fragment:fragment:1.0.0] /Users/santiagosuarez/.gradle/caches/transforms-2/files-2.1/696bfc0ad284d65fcf9d8fc7abc5e5ea/AndroidManifest.xml:17:1-22:12
MERGED from [androidx.legacy:legacy-support-core-ui:1.0.0] /Users/santiagosuarez/.gradle/caches/transforms-2/files-2.1/d84ce57f6494fd820700396f6a5e111e/AndroidManifest.xml:17:1-22:12
MERGED from [androidx.legacy:legacy-support-core-utils:1.0.0] /Users/santiagosuarez/.gradle/caches/transforms-2/files-2.1/6a2c74c9e78e558812d6e65ccbb72d11/AndroidManifest.xml:17:1-22:12
MERGED from [androidx.loader:loader:1.0.0] /Users/santiagosuarez/.gradle/caches/transforms-2/files-2.1/d61fb696bad6ca1bbe94573040be744c/AndroidManifest.xml:17:1-22:12
MERGED from [androidx.viewpager:viewpager:1.0.0] /Users/santiagosuarez/.gradle/caches/transforms-2/files-2.1/a602cf7e9aaebae1a1ee5f90860256bb/AndroidManifest.xml:17:1-22:12
MERGED from [androidx.coordinatorlayout:coordinatorlayout:1.0.0] /Users/santiagosuarez/.gradle/caches/transforms-2/files-2.1/28ed3ca99197af87e52117ee41aa21b1/AndroidManifest.xml:17:1-22:12
MERGED from [androidx.drawerlayout:drawerlayout:1.0.0] /Users/santiagosuarez/.gradle/caches/transforms-2/files-2.1/526371f0fc6de4e7e06216bbbdf1ba63/AndroidManifest.xml:17:1-22:12
MERGED from [androidx.slidingpanelayout:slidingpanelayout:1.0.0] /Users/santiagosuarez/.gradle/caches/transforms-2/files-2.1/53402a606a3c0680bb41aae26061b3ef/AndroidManifest.xml:17:1-22:12
MERGED from [androidx.customview:customview:1.0.0] /Users/santiagosuarez/.gradle/caches/transforms-2/files-2.1/6e66d0649b2b6b19837678b58e0e5af4/AndroidManifest.xml:17:1-22:12
MERGED from [androidx.swiperefreshlayout:swiperefreshlayout:1.0.0] /Users/santiagosuarez/.gradle/caches/transforms-2/files-2.1/b4f8f4fbeb01b82c73a0aa303a603919/AndroidManifest.xml:17:1-22:12
MERGED from [androidx.asynclayoutinflater:asynclayoutinflater:1.0.0] /Users/santiagosuarez/.gradle/caches/transforms-2/files-2.1/249eff6c787448de05309d4216a56ed6/AndroidManifest.xml:17:1-22:12
MERGED from [androidx.core:core:1.0.0] /Users/santiagosuarez/.gradle/caches/transforms-2/files-2.1/a702571ba6ab5b20f502cba58d23afd8/AndroidManifest.xml:17:1-24:12
MERGED from [androidx.lifecycle:lifecycle-runtime:2.0.0] /Users/santiagosuarez/.gradle/caches/transforms-2/files-2.1/b3dfe31fd9549e930c70b94ba1a42940/AndroidManifest.xml:17:1-22:12
MERGED from [androidx.lifecycle:lifecycle-livedata:2.0.0] /Users/santiagosuarez/.gradle/caches/transforms-2/files-2.1/207dbd8298589285610fb4aefb247b83/AndroidManifest.xml:17:1-22:12
MERGED from [androidx.lifecycle:lifecycle-livedata-core:2.0.0] /Users/santiagosuarez/.gradle/caches/transforms-2/files-2.1/1cfc68623e6978c5d4b12cecfee9200f/AndroidManifest.xml:17:1-22:12
MERGED from [androidx.versionedparcelable:versionedparcelable:1.0.0] /Users/santiagosuarez/.gradle/caches/transforms-2/files-2.1/a64b41d2622f09cb5e9f76c283149a31/AndroidManifest.xml:17:1-25:12
MERGED from [com.google.firebase:firebase-components:16.0.0] /Users/santiagosuarez/.gradle/caches/transforms-2/files-2.1/0496b7c72dd917dedc96bc18ef17eb2e/AndroidManifest.xml:15:1-23:12
MERGED from [androidx.documentfile:documentfile:1.0.0] /Users/santiagosuarez/.gradle/caches/transforms-2/files-2.1/366f873316d114cafaf3638dfec1263c/AndroidManifest.xml:17:1-22:12
MERGED from [androidx.localbroadcastmanager:localbroadcastmanager:1.0.0] /Users/santiagosuarez/.gradle/caches/transforms-2/files-2.1/417004a909513af514f71e3f966db304/AndroidManifest.xml:17:1-22:12
MERGED from [androidx.print:print:1.0.0] /Users/santiagosuarez/.gradle/caches/transforms-2/files-2.1/cb1595a563f2638e56842ada91c77c71/AndroidManifest.xml:17:1-22:12
MERGED from [androidx.lifecycle:lifecycle-viewmodel:2.0.0] /Users/santiagosuarez/.gradle/caches/transforms-2/files-2.1/d7d78338c5d4d276c625e19119f9c4ee/AndroidManifest.xml:17:1-22:12
MERGED from [androidx.arch.core:core-runtime:2.0.0] /Users/santiagosuarez/.gradle/caches/transforms-2/files-2.1/39b02947d21df47ae63bf48ab30866ef/AndroidManifest.xml:17:1-22:12
MERGED from [androidx.interpolator:interpolator:1.0.0] /Users/santiagosuarez/.gradle/caches/transforms-2/files-2.1/8bbdd66f0f89302eef161ebae49b4b7c/AndroidManifest.xml:17:1-22:12
MERGED from [androidx.cursoradapter:cursoradapter:1.0.0] /Users/santiagosuarez/.gradle/caches/transforms-2/files-2.1/ddecc209ad550ff804e64b68da4207d4/AndroidManifest.xml:17:1-22:12
MERGED from [io.grpc:grpc-android:1.21.0] /Users/santiagosuarez/.gradle/caches/transforms-2/files-2.1/c9d870970b6352355167419d6f53a644/AndroidManifest.xml:2:1-13:12
MERGED from [com.google.firebase:firebase-database-collection:17.0.0] /Users/santiagosuarez/.gradle/caches/transforms-2/files-2.1/20709d4f38dfd109d683ff8de3272203/AndroidManifest.xml:2:1-7:12
MERGED from [com.google.firebase:protolite-well-known-types:17.0.0] /Users/santiagosuarez/.gradle/caches/transforms-2/files-2.1/42aef23816565eb9f15bada482156334/AndroidManifest.xml:2:1-11:12
INJECTED from /Users/santiagosuarez/AndroidStudioProjects/roma/android/app/src/main/AndroidManifest.xml:1:1-39:12
INJECTED from /Users/santiagosuarez/AndroidStudioProjects/roma/android/app/src/main/AndroidManifest.xml:1:1-39:12
INJECTED from /Users/santiagosuarez/AndroidStudioProjects/roma/android/app/src/main/AndroidManifest.xml:1:1-39:12
	package
		ADDED from /Users/santiagosuarez/AndroidStudioProjects/roma/android/app/src/main/AndroidManifest.xml:2:5-38
		INJECTED from /Users/santiagosuarez/AndroidStudioProjects/roma/android/app/src/main/AndroidManifest.xml
		INJECTED from /Users/santiagosuarez/AndroidStudioProjects/roma/android/app/src/main/AndroidManifest.xml
	android:versionName
		INJECTED from /Users/santiagosuarez/AndroidStudioProjects/roma/android/app/src/main/AndroidManifest.xml
		ADDED from /Users/santiagosuarez/AndroidStudioProjects/roma/android/app/src/main/AndroidManifest.xml:1:1-39:12
		INJECTED from /Users/santiagosuarez/AndroidStudioProjects/roma/android/app/src/main/AndroidManifest.xml
	android:versionCode
		INJECTED from /Users/santiagosuarez/AndroidStudioProjects/roma/android/app/src/main/AndroidManifest.xml
		ADDED from /Users/santiagosuarez/AndroidStudioProjects/roma/android/app/src/main/AndroidManifest.xml:1:1-39:12
		INJECTED from /Users/santiagosuarez/AndroidStudioProjects/roma/android/app/src/main/AndroidManifest.xml
	xmlns:android
		ADDED from /Users/santiagosuarez/AndroidStudioProjects/roma/android/app/src/main/AndroidManifest.xml:1:11-69
uses-permission#android.permission.INTERNET
ADDED from /Users/santiagosuarez/AndroidStudioProjects/roma/android/app/src/main/AndroidManifest.xml:8:5-66
MERGED from [:google_sign_in] /Users/santiagosuarez/AndroidStudioProjects/roma/build/google_sign_in/intermediates/merged_manifests/debug/processDebugManifest/merged/AndroidManifest.xml:7:5-67
MERGED from [:google_sign_in] /Users/santiagosuarez/AndroidStudioProjects/roma/build/google_sign_in/intermediates/merged_manifests/debug/processDebugManifest/merged/AndroidManifest.xml:7:5-67
MERGED from [com.google.android.gms:play-services-measurement:17.0.1] /Users/santiagosuarez/.gradle/caches/transforms-2/files-2.1/2d60ff019c84e78305443ec42df9eaf1/AndroidManifest.xml:23:5-67
MERGED from [com.google.android.gms:play-services-measurement:17.0.1] /Users/santiagosuarez/.gradle/caches/transforms-2/files-2.1/2d60ff019c84e78305443ec42df9eaf1/AndroidManifest.xml:23:5-67
MERGED from [com.google.android.gms:play-services-measurement-api:17.0.1] /Users/santiagosuarez/.gradle/caches/transforms-2/files-2.1/f069c802c787dd4e956e5b4c12dce8a3/AndroidManifest.xml:22:5-67
MERGED from [com.google.android.gms:play-services-measurement-api:17.0.1] /Users/santiagosuarez/.gradle/caches/transforms-2/files-2.1/f069c802c787dd4e956e5b4c12dce8a3/AndroidManifest.xml:22:5-67
MERGED from [com.google.android.gms:play-services-measurement-impl:17.0.1] /Users/santiagosuarez/.gradle/caches/transforms-2/files-2.1/94fdb6e558a7f4c56d47a96d2b5aec6a/AndroidManifest.xml:23:5-67
MERGED from [com.google.android.gms:play-services-measurement-impl:17.0.1] /Users/santiagosuarez/.gradle/caches/transforms-2/files-2.1/94fdb6e558a7f4c56d47a96d2b5aec6a/AndroidManifest.xml:23:5-67
MERGED from [com.google.firebase:firebase-iid:19.0.0] /Users/santiagosuarez/.gradle/caches/transforms-2/files-2.1/c2773839ebd2875acc9742b5c7a06e96/AndroidManifest.xml:23:5-67
MERGED from [com.google.firebase:firebase-iid:19.0.0] /Users/santiagosuarez/.gradle/caches/transforms-2/files-2.1/c2773839ebd2875acc9742b5c7a06e96/AndroidManifest.xml:23:5-67
MERGED from [com.google.firebase:firebase-firestore:21.3.0] /Users/santiagosuarez/.gradle/caches/transforms-2/files-2.1/1a7dc1f2fc479a965f9ab8cfc01a1234/AndroidManifest.xml:14:5-67
MERGED from [com.google.firebase:firebase-firestore:21.3.0] /Users/santiagosuarez/.gradle/caches/transforms-2/files-2.1/1a7dc1f2fc479a965f9ab8cfc01a1234/AndroidManifest.xml:14:5-67
MERGED from [com.google.android.gms:play-services-measurement-sdk-api:17.0.1] /Users/santiagosuarez/.gradle/caches/transforms-2/files-2.1/c47fdf798b2e02ed8c0c8d1af4a0b830/AndroidManifest.xml:23:5-67
MERGED from [com.google.android.gms:play-services-measurement-sdk-api:17.0.1] /Users/santiagosuarez/.gradle/caches/transforms-2/files-2.1/c47fdf798b2e02ed8c0c8d1af4a0b830/AndroidManifest.xml:23:5-67
	android:name
		ADDED from /Users/santiagosuarez/AndroidStudioProjects/roma/android/app/src/main/AndroidManifest.xml:8:22-64
application
ADDED from /Users/santiagosuarez/AndroidStudioProjects/roma/android/app/src/main/AndroidManifest.xml:15:5-38:19
MERGED from [:firebase_auth] /Users/santiagosuarez/AndroidStudioProjects/roma/build/firebase_auth/intermediates/merged_manifests/debug/processDebugManifest/merged/AndroidManifest.xml:7:5-13:19
MERGED from [:firebase_auth] /Users/santiagosuarez/AndroidStudioProjects/roma/build/firebase_auth/intermediates/merged_manifests/debug/processDebugManifest/merged/AndroidManifest.xml:7:5-13:19
MERGED from [:cloud_firestore] /Users/santiagosuarez/AndroidStudioProjects/roma/build/cloud_firestore/intermediates/merged_manifests/debug/processDebugManifest/merged/AndroidManifest.xml:7:5-13:19
MERGED from [:cloud_firestore] /Users/santiagosuarez/AndroidStudioProjects/roma/build/cloud_firestore/intermediates/merged_manifests/debug/processDebugManifest/merged/AndroidManifest.xml:7:5-13:19
MERGED from [:firebase_core] /Users/santiagosuarez/AndroidStudioProjects/roma/build/firebase_core/intermediates/merged_manifests/debug/processDebugManifest/merged/AndroidManifest.xml:7:5-13:19
MERGED from [:firebase_core] /Users/santiagosuarez/AndroidStudioProjects/roma/build/firebase_core/intermediates/merged_manifests/debug/processDebugManifest/merged/AndroidManifest.xml:7:5-13:19
MERGED from [com.google.firebase:firebase-analytics:17.0.1] /Users/santiagosuarez/.gradle/caches/transforms-2/files-2.1/f4572b9572a62ec7c577de0c35963c34/AndroidManifest.xml:7:5-20
MERGED from [com.google.firebase:firebase-analytics:17.0.1] /Users/santiagosuarez/.gradle/caches/transforms-2/files-2.1/f4572b9572a62ec7c577de0c35963c34/AndroidManifest.xml:7:5-20
MERGED from [com.google.android.gms:play-services-measurement:17.0.1] /Users/santiagosuarez/.gradle/caches/transforms-2/files-2.1/2d60ff019c84e78305443ec42df9eaf1/AndroidManifest.xml:28:5-53:19
MERGED from [com.google.android.gms:play-services-measurement:17.0.1] /Users/santiagosuarez/.gradle/caches/transforms-2/files-2.1/2d60ff019c84e78305443ec42df9eaf1/AndroidManifest.xml:28:5-53:19
MERGED from [com.google.android.gms:play-services-measurement-api:17.0.1] /Users/santiagosuarez/.gradle/caches/transforms-2/files-2.1/f069c802c787dd4e956e5b4c12dce8a3/AndroidManifest.xml:26:5-34:19
MERGED from [com.google.android.gms:play-services-measurement-api:17.0.1] /Users/santiagosuarez/.gradle/caches/transforms-2/files-2.1/f069c802c787dd4e956e5b4c12dce8a3/AndroidManifest.xml:26:5-34:19
MERGED from [com.google.android.gms:play-services-measurement-sdk:17.0.1] /Users/santiagosuarez/.gradle/caches/transforms-2/files-2.1/28ae533f394f8214b9c94321c30e8a75/AndroidManifest.xml:22:5-23:19
MERGED from [com.google.android.gms:play-services-measurement-sdk:17.0.1] /Users/santiagosuarez/.gradle/caches/transforms-2/files-2.1/28ae533f394f8214b9c94321c30e8a75/AndroidManifest.xml:22:5-23:19
MERGED from [com.google.android.gms:play-services-measurement-impl:17.0.1] /Users/santiagosuarez/.gradle/caches/transforms-2/files-2.1/94fdb6e558a7f4c56d47a96d2b5aec6a/AndroidManifest.xml:28:5-38:19
MERGED from [com.google.android.gms:play-services-measurement-impl:17.0.1] /Users/santiagosuarez/.gradle/caches/transforms-2/files-2.1/94fdb6e558a7f4c56d47a96d2b5aec6a/AndroidManifest.xml:28:5-38:19
MERGED from [com.google.firebase:firebase-iid:19.0.0] /Users/santiagosuarez/.gradle/caches/transforms-2/files-2.1/c2773839ebd2875acc9742b5c7a06e96/AndroidManifest.xml:28:5-45:19
MERGED from [com.google.firebase:firebase-iid:19.0.0] /Users/santiagosuarez/.gradle/caches/transforms-2/files-2.1/c2773839ebd2875acc9742b5c7a06e96/AndroidManifest.xml:28:5-45:19
MERGED from [com.google.android.gms:play-services-stats:17.0.0] /Users/santiagosuarez/.gradle/caches/transforms-2/files-2.1/32a04d25dfb4ec73bb57adb2fb9a585b/AndroidManifest.xml:7:5-20
MERGED from [com.google.android.gms:play-services-stats:17.0.0] /Users/santiagosuarez/.gradle/caches/transforms-2/files-2.1/32a04d25dfb4ec73bb57adb2fb9a585b/AndroidManifest.xml:7:5-20
MERGED from [com.google.firebase:firebase-auth:17.0.0] /Users/santiagosuarez/.gradle/caches/transforms-2/files-2.1/869b2d77646b04a917f84c1e2a39b6c4/AndroidManifest.xml:23:5-40:19
MERGED from [com.google.firebase:firebase-auth:17.0.0] /Users/santiagosuarez/.gradle/caches/transforms-2/files-2.1/869b2d77646b04a917f84c1e2a39b6c4/AndroidManifest.xml:23:5-40:19
MERGED from [com.google.firebase:firebase-firestore:21.3.0] /Users/santiagosuarez/.gradle/caches/transforms-2/files-2.1/1a7dc1f2fc479a965f9ab8cfc01a1234/AndroidManifest.xml:16:5-24:19
MERGED from [com.google.firebase:firebase-firestore:21.3.0] /Users/santiagosuarez/.gradle/caches/transforms-2/files-2.1/1a7dc1f2fc479a965f9ab8cfc01a1234/AndroidManifest.xml:16:5-24:19
MERGED from [com.google.firebase:firebase-auth-interop:18.0.0] /Users/santiagosuarez/.gradle/caches/transforms-2/files-2.1/008fe340a8bc098537822333278ad5d9/AndroidManifest.xml:7:5-8:19
MERGED from [com.google.firebase:firebase-auth-interop:18.0.0] /Users/santiagosuarez/.gradle/caches/transforms-2/files-2.1/008fe340a8bc098537822333278ad5d9/AndroidManifest.xml:7:5-8:19
MERGED from [com.google.firebase:firebase-common:19.3.0] /Users/santiagosuarez/.gradle/caches/transforms-2/files-2.1/034a74f2bb94dc75c22b8d45d7d73d48/AndroidManifest.xml:25:5-37:19
MERGED from [com.google.firebase:firebase-common:19.3.0] /Users/santiagosuarez/.gradle/caches/transforms-2/files-2.1/034a74f2bb94dc75c22b8d45d7d73d48/AndroidManifest.xml:25:5-37:19
MERGED from [com.google.android.gms:play-services-auth:16.0.1] /Users/santiagosuarez/.gradle/caches/transforms-2/files-2.1/e2b23fcdd85a4a29f9b2a5a64779bbc9/AndroidManifest.xml:22:5-37:19
MERGED from [com.google.android.gms:play-services-auth:16.0.1] /Users/santiagosuarez/.gradle/caches/transforms-2/files-2.1/e2b23fcdd85a4a29f9b2a5a64779bbc9/AndroidManifest.xml:22:5-37:19
MERGED from [com.google.android.gms:play-services-measurement-sdk-api:17.0.1] /Users/santiagosuarez/.gradle/caches/transforms-2/files-2.1/c47fdf798b2e02ed8c0c8d1af4a0b830/AndroidManifest.xml:28:5-38:19
MERGED from [com.google.android.gms:play-services-measurement-sdk-api:17.0.1] /Users/santiagosuarez/.gradle/caches/transforms-2/files-2.1/c47fdf798b2e02ed8c0c8d1af4a0b830/AndroidManifest.xml:28:5-38:19
MERGED from [com.google.android.gms:play-services-measurement-base:17.0.1] /Users/santiagosuarez/.gradle/caches/transforms-2/files-2.1/5f7ad11e41755d51aaf7c9c9cd7fa355/AndroidManifest.xml:7:5-20
MERGED from [com.google.android.gms:play-services-measurement-base:17.0.1] /Users/santiagosuarez/.gradle/caches/transforms-2/files-2.1/5f7ad11e41755d51aaf7c9c9cd7fa355/AndroidManifest.xml:7:5-20
MERGED from [com.google.firebase:firebase-iid-interop:17.0.0] /Users/santiagosuarez/.gradle/caches/transforms-2/files-2.1/9a38c3388a88ef993c7306b906c5bc1a/AndroidManifest.xml:7:5-8:19
MERGED from [com.google.firebase:firebase-iid-interop:17.0.0] /Users/santiagosuarez/.gradle/caches/transforms-2/files-2.1/9a38c3388a88ef993c7306b906c5bc1a/AndroidManifest.xml:7:5-8:19
MERGED from [com.google.android.gms:play-services-base:17.0.0] /Users/santiagosuarez/.gradle/caches/transforms-2/files-2.1/5b4972036a094b60d85d5f422b1e06af/AndroidManifest.xml:22:5-27:19
MERGED from [com.google.android.gms:play-services-base:17.0.0] /Users/santiagosuarez/.gradle/caches/transforms-2/files-2.1/5b4972036a094b60d85d5f422b1e06af/AndroidManifest.xml:22:5-27:19
MERGED from [com.google.android.gms:play-services-tasks:17.0.0] /Users/santiagosuarez/.gradle/caches/transforms-2/files-2.1/d7f9aaa60d5357176b27fff3a15c63cd/AndroidManifest.xml:7:5-20
MERGED from [com.google.android.gms:play-services-tasks:17.0.0] /Users/santiagosuarez/.gradle/caches/transforms-2/files-2.1/d7f9aaa60d5357176b27fff3a15c63cd/AndroidManifest.xml:7:5-20
MERGED from [com.google.firebase:firebase-measurement-connector:18.0.0] /Users/santiagosuarez/.gradle/caches/transforms-2/files-2.1/7a6d25290626f8dff476ded8cc133e8e/AndroidManifest.xml:22:5-23:19
MERGED from [com.google.firebase:firebase-measurement-connector:18.0.0] /Users/santiagosuarez/.gradle/caches/transforms-2/files-2.1/7a6d25290626f8dff476ded8cc133e8e/AndroidManifest.xml:22:5-23:19
MERGED from [com.google.android.gms:play-services-ads-identifier:17.0.0] /Users/santiagosuarez/.gradle/caches/transforms-2/files-2.1/412faed8471e5fd7395b9116c5a088f4/AndroidManifest.xml:22:5-20
MERGED from [com.google.android.gms:play-services-ads-identifier:17.0.0] /Users/santiagosuarez/.gradle/caches/transforms-2/files-2.1/412faed8471e5fd7395b9116c5a088f4/AndroidManifest.xml:22:5-20
MERGED from [com.google.android.gms:play-services-basement:17.0.0] /Users/santiagosuarez/.gradle/caches/transforms-2/files-2.1/b4e2c8acf6a0a2be62a3344707fef1e7/AndroidManifest.xml:22:5-26:19
MERGED from [com.google.android.gms:play-services-basement:17.0.0] /Users/santiagosuarez/.gradle/caches/transforms-2/files-2.1/b4e2c8acf6a0a2be62a3344707fef1e7/AndroidManifest.xml:22:5-26:19
MERGED from [androidx.core:core:1.0.0] /Users/santiagosuarez/.gradle/caches/transforms-2/files-2.1/a702571ba6ab5b20f502cba58d23afd8/AndroidManifest.xml:22:5-89
MERGED from [androidx.core:core:1.0.0] /Users/santiagosuarez/.gradle/caches/transforms-2/files-2.1/a702571ba6ab5b20f502cba58d23afd8/AndroidManifest.xml:22:5-89
MERGED from [androidx.versionedparcelable:versionedparcelable:1.0.0] /Users/santiagosuarez/.gradle/caches/transforms-2/files-2.1/a64b41d2622f09cb5e9f76c283149a31/AndroidManifest.xml:22:5-23:19
MERGED from [androidx.versionedparcelable:versionedparcelable:1.0.0] /Users/santiagosuarez/.gradle/caches/transforms-2/files-2.1/a64b41d2622f09cb5e9f76c283149a31/AndroidManifest.xml:22:5-23:19
	android:appComponentFactory
		ADDED from [androidx.core:core:1.0.0] /Users/santiagosuarez/.gradle/caches/transforms-2/files-2.1/a702571ba6ab5b20f502cba58d23afd8/AndroidManifest.xml:22:18-86
	android:label
		ADDED from /Users/santiagosuarez/AndroidStudioProjects/roma/android/app/src/main/AndroidManifest.xml:17:9-29
	android:icon
		ADDED from /Users/santiagosuarez/AndroidStudioProjects/roma/android/app/src/main/AndroidManifest.xml:18:9-43
	android:name
		ADDED from /Users/santiagosuarez/AndroidStudioProjects/roma/android/app/src/main/AndroidManifest.xml:16:9-57
activity#com.example.invisionapp.MainActivity
ADDED from /Users/santiagosuarez/AndroidStudioProjects/roma/android/app/src/main/AndroidManifest.xml:19:9-37:20
	android:launchMode
		ADDED from /Users/santiagosuarez/AndroidStudioProjects/roma/android/app/src/main/AndroidManifest.xml:21:13-43
	android:hardwareAccelerated
		ADDED from /Users/santiagosuarez/AndroidStudioProjects/roma/android/app/src/main/AndroidManifest.xml:24:13-47
	android:windowSoftInputMode
		ADDED from /Users/santiagosuarez/AndroidStudioProjects/roma/android/app/src/main/AndroidManifest.xml:25:13-55
	android:configChanges
		ADDED from /Users/santiagosuarez/AndroidStudioProjects/roma/android/app/src/main/AndroidManifest.xml:23:13-116
	android:theme
		ADDED from /Users/santiagosuarez/AndroidStudioProjects/roma/android/app/src/main/AndroidManifest.xml:22:13-47
	android:name
		ADDED from /Users/santiagosuarez/AndroidStudioProjects/roma/android/app/src/main/AndroidManifest.xml:20:13-41
meta-data#io.flutter.app.android.SplashScreenUntilFirstFrame
ADDED from /Users/santiagosuarez/AndroidStudioProjects/roma/android/app/src/main/AndroidManifest.xml:30:13-32:40
	android:value
		ADDED from /Users/santiagosuarez/AndroidStudioProjects/roma/android/app/src/main/AndroidManifest.xml:32:17-37
	android:name
		ADDED from /Users/santiagosuarez/AndroidStudioProjects/roma/android/app/src/main/AndroidManifest.xml:31:17-82
intent-filter#action:name:android.intent.action.MAIN+category:name:android.intent.category.LAUNCHER
ADDED from /Users/santiagosuarez/AndroidStudioProjects/roma/android/app/src/main/AndroidManifest.xml:33:13-36:29
action#android.intent.action.MAIN
ADDED from /Users/santiagosuarez/AndroidStudioProjects/roma/android/app/src/main/AndroidManifest.xml:34:17-68
	android:name
		ADDED from /Users/santiagosuarez/AndroidStudioProjects/roma/android/app/src/main/AndroidManifest.xml:34:25-66
category#android.intent.category.LAUNCHER
ADDED from /Users/santiagosuarez/AndroidStudioProjects/roma/android/app/src/main/AndroidManifest.xml:35:17-76
	android:name
		ADDED from /Users/santiagosuarez/AndroidStudioProjects/roma/android/app/src/main/AndroidManifest.xml:35:27-74
uses-sdk
INJECTED from /Users/santiagosuarez/AndroidStudioProjects/roma/android/app/src/main/AndroidManifest.xml reason: use-sdk injection requested
INJECTED from /Users/santiagosuarez/AndroidStudioProjects/roma/android/app/src/main/AndroidManifest.xml
INJECTED from /Users/santiagosuarez/AndroidStudioProjects/roma/android/app/src/main/AndroidManifest.xml
MERGED from [:firebase_auth] /Users/santiagosuarez/AndroidStudioProjects/roma/build/firebase_auth/intermediates/merged_manifests/debug/processDebugManifest/merged/AndroidManifest.xml:5:5-44
MERGED from [:firebase_auth] /Users/santiagosuarez/AndroidStudioProjects/roma/build/firebase_auth/intermediates/merged_manifests/debug/processDebugManifest/merged/AndroidManifest.xml:5:5-44
MERGED from [:cloud_firestore] /Users/santiagosuarez/AndroidStudioProjects/roma/build/cloud_firestore/intermediates/merged_manifests/debug/processDebugManifest/merged/AndroidManifest.xml:5:5-44
MERGED from [:cloud_firestore] /Users/santiagosuarez/AndroidStudioProjects/roma/build/cloud_firestore/intermediates/merged_manifests/debug/processDebugManifest/merged/AndroidManifest.xml:5:5-44
MERGED from [:firebase_core] /Users/santiagosuarez/AndroidStudioProjects/roma/build/firebase_core/intermediates/merged_manifests/debug/processDebugManifest/merged/AndroidManifest.xml:5:5-44
MERGED from [:firebase_core] /Users/santiagosuarez/AndroidStudioProjects/roma/build/firebase_core/intermediates/merged_manifests/debug/processDebugManifest/merged/AndroidManifest.xml:5:5-44
MERGED from [:firebase_core_web] /Users/santiagosuarez/AndroidStudioProjects/roma/build/firebase_core_web/intermediates/merged_manifests/debug/processDebugManifest/merged/AndroidManifest.xml:5:5-44
MERGED from [:firebase_core_web] /Users/santiagosuarez/AndroidStudioProjects/roma/build/firebase_core_web/intermediates/merged_manifests/debug/processDebugManifest/merged/AndroidManifest.xml:5:5-44
MERGED from [:google_sign_in] /Users/santiagosuarez/AndroidStudioProjects/roma/build/google_sign_in/intermediates/merged_manifests/debug/processDebugManifest/merged/AndroidManifest.xml:5:5-44
MERGED from [:google_sign_in] /Users/santiagosuarez/AndroidStudioProjects/roma/build/google_sign_in/intermediates/merged_manifests/debug/processDebugManifest/merged/AndroidManifest.xml:5:5-44
MERGED from [:google_sign_in_web] /Users/santiagosuarez/AndroidStudioProjects/roma/build/google_sign_in_web/intermediates/merged_manifests/debug/processDebugManifest/merged/AndroidManifest.xml:5:5-44
MERGED from [:google_sign_in_web] /Users/santiagosuarez/AndroidStudioProjects/roma/build/google_sign_in_web/intermediates/merged_manifests/debug/processDebugManifest/merged/AndroidManifest.xml:5:5-44
MERGED from [androidx.multidex:multidex:2.0.0] /Users/santiagosuarez/.gradle/caches/transforms-2/files-2.1/e1e7fd09c488576a681f4e8c81c01b67/AndroidManifest.xml:20:5-43
MERGED from [androidx.multidex:multidex:2.0.0] /Users/santiagosuarez/.gradle/caches/transforms-2/files-2.1/e1e7fd09c488576a681f4e8c81c01b67/AndroidManifest.xml:20:5-43
MERGED from [com.google.firebase:firebase-analytics:17.0.1] /Users/santiagosuarez/.gradle/caches/transforms-2/files-2.1/f4572b9572a62ec7c577de0c35963c34/AndroidManifest.xml:5:5-44
MERGED from [com.google.firebase:firebase-analytics:17.0.1] /Users/santiagosuarez/.gradle/caches/transforms-2/files-2.1/f4572b9572a62ec7c577de0c35963c34/AndroidManifest.xml:5:5-44
MERGED from [com.google.android.gms:play-services-measurement:17.0.1] /Users/santiagosuarez/.gradle/caches/transforms-2/files-2.1/2d60ff019c84e78305443ec42df9eaf1/AndroidManifest.xml:20:5-44
MERGED from [com.google.android.gms:play-services-measurement:17.0.1] /Users/santiagosuarez/.gradle/caches/transforms-2/files-2.1/2d60ff019c84e78305443ec42df9eaf1/AndroidManifest.xml:20:5-44
MERGED from [com.google.android.gms:play-services-measurement-api:17.0.1] /Users/santiagosuarez/.gradle/caches/transforms-2/files-2.1/f069c802c787dd4e956e5b4c12dce8a3/AndroidManifest.xml:20:5-44
MERGED from [com.google.android.gms:play-services-measurement-api:17.0.1] /Users/santiagosuarez/.gradle/caches/transforms-2/files-2.1/f069c802c787dd4e956e5b4c12dce8a3/AndroidManifest.xml:20:5-44
MERGED from [com.google.android.gms:play-services-measurement-sdk:17.0.1] /Users/santiagosuarez/.gradle/caches/transforms-2/files-2.1/28ae533f394f8214b9c94321c30e8a75/AndroidManifest.xml:20:5-44
MERGED from [com.google.android.gms:play-services-measurement-sdk:17.0.1] /Users/santiagosuarez/.gradle/caches/transforms-2/files-2.1/28ae533f394f8214b9c94321c30e8a75/AndroidManifest.xml:20:5-44
MERGED from [com.google.android.gms:play-services-measurement-impl:17.0.1] /Users/santiagosuarez/.gradle/caches/transforms-2/files-2.1/94fdb6e558a7f4c56d47a96d2b5aec6a/AndroidManifest.xml:20:5-44
MERGED from [com.google.android.gms:play-services-measurement-impl:17.0.1] /Users/santiagosuarez/.gradle/caches/transforms-2/files-2.1/94fdb6e558a7f4c56d47a96d2b5aec6a/AndroidManifest.xml:20:5-44
MERGED from [com.google.firebase:firebase-iid:19.0.0] /Users/santiagosuarez/.gradle/caches/transforms-2/files-2.1/c2773839ebd2875acc9742b5c7a06e96/AndroidManifest.xml:20:5-44
MERGED from [com.google.firebase:firebase-iid:19.0.0] /Users/santiagosuarez/.gradle/caches/transforms-2/files-2.1/c2773839ebd2875acc9742b5c7a06e96/AndroidManifest.xml:20:5-44
MERGED from [com.google.android.gms:play-services-stats:17.0.0] /Users/santiagosuarez/.gradle/caches/transforms-2/files-2.1/32a04d25dfb4ec73bb57adb2fb9a585b/AndroidManifest.xml:5:5-44
MERGED from [com.google.android.gms:play-services-stats:17.0.0] /Users/santiagosuarez/.gradle/caches/transforms-2/files-2.1/32a04d25dfb4ec73bb57adb2fb9a585b/AndroidManifest.xml:5:5-44
MERGED from [com.google.firebase:firebase-auth:17.0.0] /Users/santiagosuarez/.gradle/caches/transforms-2/files-2.1/869b2d77646b04a917f84c1e2a39b6c4/AndroidManifest.xml:21:5-44
MERGED from [com.google.firebase:firebase-auth:17.0.0] /Users/santiagosuarez/.gradle/caches/transforms-2/files-2.1/869b2d77646b04a917f84c1e2a39b6c4/AndroidManifest.xml:21:5-44
MERGED from [com.google.firebase:firebase-firestore:21.3.0] /Users/santiagosuarez/.gradle/caches/transforms-2/files-2.1/1a7dc1f2fc479a965f9ab8cfc01a1234/AndroidManifest.xml:7:5-9:41
MERGED from [com.google.firebase:firebase-firestore:21.3.0] /Users/santiagosuarez/.gradle/caches/transforms-2/files-2.1/1a7dc1f2fc479a965f9ab8cfc01a1234/AndroidManifest.xml:7:5-9:41
MERGED from [com.google.firebase:firebase-auth-interop:18.0.0] /Users/santiagosuarez/.gradle/caches/transforms-2/files-2.1/008fe340a8bc098537822333278ad5d9/AndroidManifest.xml:5:5-44
MERGED from [com.google.firebase:firebase-auth-interop:18.0.0] /Users/santiagosuarez/.gradle/caches/transforms-2/files-2.1/008fe340a8bc098537822333278ad5d9/AndroidManifest.xml:5:5-44
MERGED from [com.google.firebase:firebase-common:19.3.0] /Users/santiagosuarez/.gradle/caches/transforms-2/files-2.1/034a74f2bb94dc75c22b8d45d7d73d48/AndroidManifest.xml:20:5-22:41
MERGED from [com.google.firebase:firebase-common:19.3.0] /Users/santiagosuarez/.gradle/caches/transforms-2/files-2.1/034a74f2bb94dc75c22b8d45d7d73d48/AndroidManifest.xml:20:5-22:41
MERGED from [com.google.android.gms:play-services-auth:16.0.1] /Users/santiagosuarez/.gradle/caches/transforms-2/files-2.1/e2b23fcdd85a4a29f9b2a5a64779bbc9/AndroidManifest.xml:20:5-44
MERGED from [com.google.android.gms:play-services-auth:16.0.1] /Users/santiagosuarez/.gradle/caches/transforms-2/files-2.1/e2b23fcdd85a4a29f9b2a5a64779bbc9/AndroidManifest.xml:20:5-44
MERGED from [com.google.android.gms:play-services-measurement-sdk-api:17.0.1] /Users/santiagosuarez/.gradle/caches/transforms-2/files-2.1/c47fdf798b2e02ed8c0c8d1af4a0b830/AndroidManifest.xml:20:5-44
MERGED from [com.google.android.gms:play-services-measurement-sdk-api:17.0.1] /Users/santiagosuarez/.gradle/caches/transforms-2/files-2.1/c47fdf798b2e02ed8c0c8d1af4a0b830/AndroidManifest.xml:20:5-44
MERGED from [com.google.android.gms:play-services-measurement-base:17.0.1] /Users/santiagosuarez/.gradle/caches/transforms-2/files-2.1/5f7ad11e41755d51aaf7c9c9cd7fa355/AndroidManifest.xml:5:5-44
MERGED from [com.google.android.gms:play-services-measurement-base:17.0.1] /Users/santiagosuarez/.gradle/caches/transforms-2/files-2.1/5f7ad11e41755d51aaf7c9c9cd7fa355/AndroidManifest.xml:5:5-44
MERGED from [com.google.android.gms:play-services-flags:16.0.1] /Users/santiagosuarez/.gradle/caches/transforms-2/files-2.1/8c95c69ead1787578ce3a8e5ba34cfaf/AndroidManifest.xml:20:5-44
MERGED from [com.google.android.gms:play-services-flags:16.0.1] /Users/santiagosuarez/.gradle/caches/transforms-2/files-2.1/8c95c69ead1787578ce3a8e5ba34cfaf/AndroidManifest.xml:20:5-44
MERGED from [com.google.android.gms:play-services-auth-api-phone:16.0.0] /Users/santiagosuarez/.gradle/caches/transforms-2/files-2.1/0195387a8e0640f83fdd75d0e071e882/AndroidManifest.xml:5:5-44
MERGED from [com.google.android.gms:play-services-auth-api-phone:16.0.0] /Users/santiagosuarez/.gradle/caches/transforms-2/files-2.1/0195387a8e0640f83fdd75d0e071e882/AndroidManifest.xml:5:5-44
MERGED from [com.google.android.gms:play-services-auth-base:16.0.0] /Users/santiagosuarez/.gradle/caches/transforms-2/files-2.1/cef87359e4ea0e75186e510a6fd4105c/AndroidManifest.xml:5:5-44
MERGED from [com.google.android.gms:play-services-auth-base:16.0.0] /Users/santiagosuarez/.gradle/caches/transforms-2/files-2.1/cef87359e4ea0e75186e510a6fd4105c/AndroidManifest.xml:5:5-44
MERGED from [com.google.firebase:firebase-iid-interop:17.0.0] /Users/santiagosuarez/.gradle/caches/transforms-2/files-2.1/9a38c3388a88ef993c7306b906c5bc1a/AndroidManifest.xml:5:5-44
MERGED from [com.google.firebase:firebase-iid-interop:17.0.0] /Users/santiagosuarez/.gradle/caches/transforms-2/files-2.1/9a38c3388a88ef993c7306b906c5bc1a/AndroidManifest.xml:5:5-44
MERGED from [com.google.android.gms:play-services-base:17.0.0] /Users/santiagosuarez/.gradle/caches/transforms-2/files-2.1/5b4972036a094b60d85d5f422b1e06af/AndroidManifest.xml:20:5-44
MERGED from [com.google.android.gms:play-services-base:17.0.0] /Users/santiagosuarez/.gradle/caches/transforms-2/files-2.1/5b4972036a094b60d85d5f422b1e06af/AndroidManifest.xml:20:5-44
MERGED from [com.google.android.gms:play-services-tasks:17.0.0] /Users/santiagosuarez/.gradle/caches/transforms-2/files-2.1/d7f9aaa60d5357176b27fff3a15c63cd/AndroidManifest.xml:5:5-44
MERGED from [com.google.android.gms:play-services-tasks:17.0.0] /Users/santiagosuarez/.gradle/caches/transforms-2/files-2.1/d7f9aaa60d5357176b27fff3a15c63cd/AndroidManifest.xml:5:5-44
MERGED from [com.google.firebase:firebase-measurement-connector:18.0.0] /Users/santiagosuarez/.gradle/caches/transforms-2/files-2.1/7a6d25290626f8dff476ded8cc133e8e/AndroidManifest.xml:20:5-44
MERGED from [com.google.firebase:firebase-measurement-connector:18.0.0] /Users/santiagosuarez/.gradle/caches/transforms-2/files-2.1/7a6d25290626f8dff476ded8cc133e8e/AndroidManifest.xml:20:5-44
MERGED from [com.google.android.gms:play-services-ads-identifier:17.0.0] /Users/santiagosuarez/.gradle/caches/transforms-2/files-2.1/412faed8471e5fd7395b9116c5a088f4/AndroidManifest.xml:20:5-44
MERGED from [com.google.android.gms:play-services-ads-identifier:17.0.0] /Users/santiagosuarez/.gradle/caches/transforms-2/files-2.1/412faed8471e5fd7395b9116c5a088f4/AndroidManifest.xml:20:5-44
MERGED from [com.google.android.gms:play-services-basement:17.0.0] /Users/santiagosuarez/.gradle/caches/transforms-2/files-2.1/b4e2c8acf6a0a2be62a3344707fef1e7/AndroidManifest.xml:20:5-44
MERGED from [com.google.android.gms:play-services-basement:17.0.0] /Users/santiagosuarez/.gradle/caches/transforms-2/files-2.1/b4e2c8acf6a0a2be62a3344707fef1e7/AndroidManifest.xml:20:5-44
MERGED from [androidx.fragment:fragment:1.0.0] /Users/santiagosuarez/.gradle/caches/transforms-2/files-2.1/696bfc0ad284d65fcf9d8fc7abc5e5ea/AndroidManifest.xml:20:5-44
MERGED from [androidx.fragment:fragment:1.0.0] /Users/santiagosuarez/.gradle/caches/transforms-2/files-2.1/696bfc0ad284d65fcf9d8fc7abc5e5ea/AndroidManifest.xml:20:5-44
MERGED from [androidx.legacy:legacy-support-core-ui:1.0.0] /Users/santiagosuarez/.gradle/caches/transforms-2/files-2.1/d84ce57f6494fd820700396f6a5e111e/AndroidManifest.xml:20:5-44
MERGED from [androidx.legacy:legacy-support-core-ui:1.0.0] /Users/santiagosuarez/.gradle/caches/transforms-2/files-2.1/d84ce57f6494fd820700396f6a5e111e/AndroidManifest.xml:20:5-44
MERGED from [androidx.legacy:legacy-support-core-utils:1.0.0] /Users/santiagosuarez/.gradle/caches/transforms-2/files-2.1/6a2c74c9e78e558812d6e65ccbb72d11/AndroidManifest.xml:20:5-44
MERGED from [androidx.legacy:legacy-support-core-utils:1.0.0] /Users/santiagosuarez/.gradle/caches/transforms-2/files-2.1/6a2c74c9e78e558812d6e65ccbb72d11/AndroidManifest.xml:20:5-44
MERGED from [androidx.loader:loader:1.0.0] /Users/santiagosuarez/.gradle/caches/transforms-2/files-2.1/d61fb696bad6ca1bbe94573040be744c/AndroidManifest.xml:20:5-44
MERGED from [androidx.loader:loader:1.0.0] /Users/santiagosuarez/.gradle/caches/transforms-2/files-2.1/d61fb696bad6ca1bbe94573040be744c/AndroidManifest.xml:20:5-44
MERGED from [androidx.viewpager:viewpager:1.0.0] /Users/santiagosuarez/.gradle/caches/transforms-2/files-2.1/a602cf7e9aaebae1a1ee5f90860256bb/AndroidManifest.xml:20:5-44
MERGED from [androidx.viewpager:viewpager:1.0.0] /Users/santiagosuarez/.gradle/caches/transforms-2/files-2.1/a602cf7e9aaebae1a1ee5f90860256bb/AndroidManifest.xml:20:5-44
MERGED from [androidx.coordinatorlayout:coordinatorlayout:1.0.0] /Users/santiagosuarez/.gradle/caches/transforms-2/files-2.1/28ed3ca99197af87e52117ee41aa21b1/AndroidManifest.xml:20:5-44
MERGED from [androidx.coordinatorlayout:coordinatorlayout:1.0.0] /Users/santiagosuarez/.gradle/caches/transforms-2/files-2.1/28ed3ca99197af87e52117ee41aa21b1/AndroidManifest.xml:20:5-44
MERGED from [androidx.drawerlayout:drawerlayout:1.0.0] /Users/santiagosuarez/.gradle/caches/transforms-2/files-2.1/526371f0fc6de4e7e06216bbbdf1ba63/AndroidManifest.xml:20:5-44
MERGED from [androidx.drawerlayout:drawerlayout:1.0.0] /Users/santiagosuarez/.gradle/caches/transforms-2/files-2.1/526371f0fc6de4e7e06216bbbdf1ba63/AndroidManifest.xml:20:5-44
MERGED from [androidx.slidingpanelayout:slidingpanelayout:1.0.0] /Users/santiagosuarez/.gradle/caches/transforms-2/files-2.1/53402a606a3c0680bb41aae26061b3ef/AndroidManifest.xml:20:5-44
MERGED from [androidx.slidingpanelayout:slidingpanelayout:1.0.0] /Users/santiagosuarez/.gradle/caches/transforms-2/files-2.1/53402a606a3c0680bb41aae26061b3ef/AndroidManifest.xml:20:5-44
MERGED from [androidx.customview:customview:1.0.0] /Users/santiagosuarez/.gradle/caches/transforms-2/files-2.1/6e66d0649b2b6b19837678b58e0e5af4/AndroidManifest.xml:20:5-44
MERGED from [androidx.customview:customview:1.0.0] /Users/santiagosuarez/.gradle/caches/transforms-2/files-2.1/6e66d0649b2b6b19837678b58e0e5af4/AndroidManifest.xml:20:5-44
MERGED from [androidx.swiperefreshlayout:swiperefreshlayout:1.0.0] /Users/santiagosuarez/.gradle/caches/transforms-2/files-2.1/b4f8f4fbeb01b82c73a0aa303a603919/AndroidManifest.xml:20:5-44
MERGED from [androidx.swiperefreshlayout:swiperefreshlayout:1.0.0] /Users/santiagosuarez/.gradle/caches/transforms-2/files-2.1/b4f8f4fbeb01b82c73a0aa303a603919/AndroidManifest.xml:20:5-44
MERGED from [androidx.asynclayoutinflater:asynclayoutinflater:1.0.0] /Users/santiagosuarez/.gradle/caches/transforms-2/files-2.1/249eff6c787448de05309d4216a56ed6/AndroidManifest.xml:20:5-44
MERGED from [androidx.asynclayoutinflater:asynclayoutinflater:1.0.0] /Users/santiagosuarez/.gradle/caches/transforms-2/files-2.1/249eff6c787448de05309d4216a56ed6/AndroidManifest.xml:20:5-44
MERGED from [androidx.core:core:1.0.0] /Users/santiagosuarez/.gradle/caches/transforms-2/files-2.1/a702571ba6ab5b20f502cba58d23afd8/AndroidManifest.xml:20:5-44
MERGED from [androidx.core:core:1.0.0] /Users/santiagosuarez/.gradle/caches/transforms-2/files-2.1/a702571ba6ab5b20f502cba58d23afd8/AndroidManifest.xml:20:5-44
MERGED from [androidx.lifecycle:lifecycle-runtime:2.0.0] /Users/santiagosuarez/.gradle/caches/transforms-2/files-2.1/b3dfe31fd9549e930c70b94ba1a42940/AndroidManifest.xml:20:5-44
MERGED from [androidx.lifecycle:lifecycle-runtime:2.0.0] /Users/santiagosuarez/.gradle/caches/transforms-2/files-2.1/b3dfe31fd9549e930c70b94ba1a42940/AndroidManifest.xml:20:5-44
MERGED from [androidx.lifecycle:lifecycle-livedata:2.0.0] /Users/santiagosuarez/.gradle/caches/transforms-2/files-2.1/207dbd8298589285610fb4aefb247b83/AndroidManifest.xml:20:5-44
MERGED from [androidx.lifecycle:lifecycle-livedata:2.0.0] /Users/santiagosuarez/.gradle/caches/transforms-2/files-2.1/207dbd8298589285610fb4aefb247b83/AndroidManifest.xml:20:5-44
MERGED from [androidx.lifecycle:lifecycle-livedata-core:2.0.0] /Users/santiagosuarez/.gradle/caches/transforms-2/files-2.1/1cfc68623e6978c5d4b12cecfee9200f/AndroidManifest.xml:20:5-44
MERGED from [androidx.lifecycle:lifecycle-livedata-core:2.0.0] /Users/santiagosuarez/.gradle/caches/transforms-2/files-2.1/1cfc68623e6978c5d4b12cecfee9200f/AndroidManifest.xml:20:5-44
MERGED from [androidx.versionedparcelable:versionedparcelable:1.0.0] /Users/santiagosuarez/.gradle/caches/transforms-2/files-2.1/a64b41d2622f09cb5e9f76c283149a31/AndroidManifest.xml:20:5-44
MERGED from [androidx.versionedparcelable:versionedparcelable:1.0.0] /Users/santiagosuarez/.gradle/caches/transforms-2/files-2.1/a64b41d2622f09cb5e9f76c283149a31/AndroidManifest.xml:20:5-44
MERGED from [com.google.firebase:firebase-components:16.0.0] /Users/santiagosuarez/.gradle/caches/transforms-2/files-2.1/0496b7c72dd917dedc96bc18ef17eb2e/AndroidManifest.xml:19:5-21:41
MERGED from [com.google.firebase:firebase-components:16.0.0] /Users/santiagosuarez/.gradle/caches/transforms-2/files-2.1/0496b7c72dd917dedc96bc18ef17eb2e/AndroidManifest.xml:19:5-21:41
MERGED from [androidx.documentfile:documentfile:1.0.0] /Users/santiagosuarez/.gradle/caches/transforms-2/files-2.1/366f873316d114cafaf3638dfec1263c/AndroidManifest.xml:20:5-44
MERGED from [androidx.documentfile:documentfile:1.0.0] /Users/santiagosuarez/.gradle/caches/transforms-2/files-2.1/366f873316d114cafaf3638dfec1263c/AndroidManifest.xml:20:5-44
MERGED from [androidx.localbroadcastmanager:localbroadcastmanager:1.0.0] /Users/santiagosuarez/.gradle/caches/transforms-2/files-2.1/417004a909513af514f71e3f966db304/AndroidManifest.xml:20:5-44
MERGED from [androidx.localbroadcastmanager:localbroadcastmanager:1.0.0] /Users/santiagosuarez/.gradle/caches/transforms-2/files-2.1/417004a909513af514f71e3f966db304/AndroidManifest.xml:20:5-44
MERGED from [androidx.print:print:1.0.0] /Users/santiagosuarez/.gradle/caches/transforms-2/files-2.1/cb1595a563f2638e56842ada91c77c71/AndroidManifest.xml:20:5-44
MERGED from [androidx.print:print:1.0.0] /Users/santiagosuarez/.gradle/caches/transforms-2/files-2.1/cb1595a563f2638e56842ada91c77c71/AndroidManifest.xml:20:5-44
MERGED from [androidx.lifecycle:lifecycle-viewmodel:2.0.0] /Users/santiagosuarez/.gradle/caches/transforms-2/files-2.1/d7d78338c5d4d276c625e19119f9c4ee/AndroidManifest.xml:20:5-44
MERGED from [androidx.lifecycle:lifecycle-viewmodel:2.0.0] /Users/santiagosuarez/.gradle/caches/transforms-2/files-2.1/d7d78338c5d4d276c625e19119f9c4ee/AndroidManifest.xml:20:5-44
MERGED from [androidx.arch.core:core-runtime:2.0.0] /Users/santiagosuarez/.gradle/caches/transforms-2/files-2.1/39b02947d21df47ae63bf48ab30866ef/AndroidManifest.xml:20:5-44
MERGED from [androidx.arch.core:core-runtime:2.0.0] /Users/santiagosuarez/.gradle/caches/transforms-2/files-2.1/39b02947d21df47ae63bf48ab30866ef/AndroidManifest.xml:20:5-44
MERGED from [androidx.interpolator:interpolator:1.0.0] /Users/santiagosuarez/.gradle/caches/transforms-2/files-2.1/8bbdd66f0f89302eef161ebae49b4b7c/AndroidManifest.xml:20:5-44
MERGED from [androidx.interpolator:interpolator:1.0.0] /Users/santiagosuarez/.gradle/caches/transforms-2/files-2.1/8bbdd66f0f89302eef161ebae49b4b7c/AndroidManifest.xml:20:5-44
MERGED from [androidx.cursoradapter:cursoradapter:1.0.0] /Users/santiagosuarez/.gradle/caches/transforms-2/files-2.1/ddecc209ad550ff804e64b68da4207d4/AndroidManifest.xml:20:5-44
MERGED from [androidx.cursoradapter:cursoradapter:1.0.0] /Users/santiagosuarez/.gradle/caches/transforms-2/files-2.1/ddecc209ad550ff804e64b68da4207d4/AndroidManifest.xml:20:5-44
MERGED from [io.grpc:grpc-android:1.21.0] /Users/santiagosuarez/.gradle/caches/transforms-2/files-2.1/c9d870970b6352355167419d6f53a644/AndroidManifest.xml:7:5-9:41
MERGED from [io.grpc:grpc-android:1.21.0] /Users/santiagosuarez/.gradle/caches/transforms-2/files-2.1/c9d870970b6352355167419d6f53a644/AndroidManifest.xml:7:5-9:41
MERGED from [com.google.firebase:firebase-database-collection:17.0.0] /Users/santiagosuarez/.gradle/caches/transforms-2/files-2.1/20709d4f38dfd109d683ff8de3272203/AndroidManifest.xml:5:5-44
MERGED from [com.google.firebase:firebase-database-collection:17.0.0] /Users/santiagosuarez/.gradle/caches/transforms-2/files-2.1/20709d4f38dfd109d683ff8de3272203/AndroidManifest.xml:5:5-44
MERGED from [com.google.firebase:protolite-well-known-types:17.0.0] /Users/santiagosuarez/.gradle/caches/transforms-2/files-2.1/42aef23816565eb9f15bada482156334/AndroidManifest.xml:7:5-9:41
MERGED from [com.google.firebase:protolite-well-known-types:17.0.0] /Users/santiagosuarez/.gradle/caches/transforms-2/files-2.1/42aef23816565eb9f15bada482156334/AndroidManifest.xml:7:5-9:41
INJECTED from /Users/santiagosuarez/AndroidStudioProjects/roma/android/app/src/main/AndroidManifest.xml
INJECTED from /Users/santiagosuarez/AndroidStudioProjects/roma/android/app/src/main/AndroidManifest.xml
	android:targetSdkVersion
		INJECTED from /Users/santiagosuarez/AndroidStudioProjects/roma/android/app/src/main/AndroidManifest.xml
		ADDED from /Users/santiagosuarez/AndroidStudioProjects/roma/android/app/src/main/AndroidManifest.xml
		INJECTED from /Users/santiagosuarez/AndroidStudioProjects/roma/android/app/src/main/AndroidManifest.xml
	android:minSdkVersion
		INJECTED from /Users/santiagosuarez/AndroidStudioProjects/roma/android/app/src/main/AndroidManifest.xml
		ADDED from /Users/santiagosuarez/AndroidStudioProjects/roma/android/app/src/main/AndroidManifest.xml
		INJECTED from /Users/santiagosuarez/AndroidStudioProjects/roma/android/app/src/main/AndroidManifest.xml
service#com.google.firebase.components.ComponentDiscoveryService
ADDED from [:firebase_auth] /Users/santiagosuarez/AndroidStudioProjects/roma/build/firebase_auth/intermediates/merged_manifests/debug/processDebugManifest/merged/AndroidManifest.xml:8:9-12:19
MERGED from [:cloud_firestore] /Users/santiagosuarez/AndroidStudioProjects/roma/build/cloud_firestore/intermediates/merged_manifests/debug/processDebugManifest/merged/AndroidManifest.xml:8:9-12:19
MERGED from [:cloud_firestore] /Users/santiagosuarez/AndroidStudioProjects/roma/build/cloud_firestore/intermediates/merged_manifests/debug/processDebugManifest/merged/AndroidManifest.xml:8:9-12:19
MERGED from [:firebase_core] /Users/santiagosuarez/AndroidStudioProjects/roma/build/firebase_core/intermediates/merged_manifests/debug/processDebugManifest/merged/AndroidManifest.xml:8:9-12:19
MERGED from [:firebase_core] /Users/santiagosuarez/AndroidStudioProjects/roma/build/firebase_core/intermediates/merged_manifests/debug/processDebugManifest/merged/AndroidManifest.xml:8:9-12:19
MERGED from [com.google.android.gms:play-services-measurement-api:17.0.1] /Users/santiagosuarez/.gradle/caches/transforms-2/files-2.1/f069c802c787dd4e956e5b4c12dce8a3/AndroidManifest.xml:27:9-33:19
MERGED from [com.google.android.gms:play-services-measurement-api:17.0.1] /Users/santiagosuarez/.gradle/caches/transforms-2/files-2.1/f069c802c787dd4e956e5b4c12dce8a3/AndroidManifest.xml:27:9-33:19
MERGED from [com.google.firebase:firebase-iid:19.0.0] /Users/santiagosuarez/.gradle/caches/transforms-2/files-2.1/c2773839ebd2875acc9742b5c7a06e96/AndroidManifest.xml:29:9-35:19
MERGED from [com.google.firebase:firebase-iid:19.0.0] /Users/santiagosuarez/.gradle/caches/transforms-2/files-2.1/c2773839ebd2875acc9742b5c7a06e96/AndroidManifest.xml:29:9-35:19
MERGED from [com.google.firebase:firebase-auth:17.0.0] /Users/santiagosuarez/.gradle/caches/transforms-2/files-2.1/869b2d77646b04a917f84c1e2a39b6c4/AndroidManifest.xml:33:9-39:19
MERGED from [com.google.firebase:firebase-auth:17.0.0] /Users/santiagosuarez/.gradle/caches/transforms-2/files-2.1/869b2d77646b04a917f84c1e2a39b6c4/AndroidManifest.xml:33:9-39:19
MERGED from [com.google.firebase:firebase-firestore:21.3.0] /Users/santiagosuarez/.gradle/caches/transforms-2/files-2.1/1a7dc1f2fc479a965f9ab8cfc01a1234/AndroidManifest.xml:17:9-23:19
MERGED from [com.google.firebase:firebase-firestore:21.3.0] /Users/santiagosuarez/.gradle/caches/transforms-2/files-2.1/1a7dc1f2fc479a965f9ab8cfc01a1234/AndroidManifest.xml:17:9-23:19
MERGED from [com.google.firebase:firebase-common:19.3.0] /Users/santiagosuarez/.gradle/caches/transforms-2/files-2.1/034a74f2bb94dc75c22b8d45d7d73d48/AndroidManifest.xml:32:9-36:35
MERGED from [com.google.firebase:firebase-common:19.3.0] /Users/santiagosuarez/.gradle/caches/transforms-2/files-2.1/034a74f2bb94dc75c22b8d45d7d73d48/AndroidManifest.xml:32:9-36:35
	android:exported
		ADDED from [com.google.android.gms:play-services-measurement-api:17.0.1] /Users/santiagosuarez/.gradle/caches/transforms-2/files-2.1/f069c802c787dd4e956e5b4c12dce8a3/AndroidManifest.xml:29:13-37
	tools:targetApi
		ADDED from [com.google.firebase:firebase-common:19.3.0] /Users/santiagosuarez/.gradle/caches/transforms-2/files-2.1/034a74f2bb94dc75c22b8d45d7d73d48/AndroidManifest.xml:36:13-32
	android:directBootAware
		ADDED from [com.google.firebase:firebase-common:19.3.0] /Users/santiagosuarez/.gradle/caches/transforms-2/files-2.1/034a74f2bb94dc75c22b8d45d7d73d48/AndroidManifest.xml:34:13-43
	android:name
		ADDED from [:firebase_auth] /Users/santiagosuarez/AndroidStudioProjects/roma/build/firebase_auth/intermediates/merged_manifests/debug/processDebugManifest/merged/AndroidManifest.xml:8:18-89
meta-data#com.google.firebase.components:io.flutter.plugins.firebaseauth.FlutterFirebaseAppRegistrar
ADDED from [:firebase_auth] /Users/santiagosuarez/AndroidStudioProjects/roma/build/firebase_auth/intermediates/merged_manifests/debug/processDebugManifest/merged/AndroidManifest.xml:9:13-11:85
	android:value
		ADDED from [:firebase_auth] /Users/santiagosuarez/AndroidStudioProjects/roma/build/firebase_auth/intermediates/merged_manifests/debug/processDebugManifest/merged/AndroidManifest.xml:11:17-82
	android:name
		ADDED from [:firebase_auth] /Users/santiagosuarez/AndroidStudioProjects/roma/build/firebase_auth/intermediates/merged_manifests/debug/processDebugManifest/merged/AndroidManifest.xml:10:17-122
meta-data#com.google.firebase.components:io.flutter.plugins.firebase.cloudfirestore.FlutterFirebaseAppRegistrar
ADDED from [:cloud_firestore] /Users/santiagosuarez/AndroidStudioProjects/roma/build/cloud_firestore/intermediates/merged_manifests/debug/processDebugManifest/merged/AndroidManifest.xml:9:13-11:85
	android:value
		ADDED from [:cloud_firestore] /Users/santiagosuarez/AndroidStudioProjects/roma/build/cloud_firestore/intermediates/merged_manifests/debug/processDebugManifest/merged/AndroidManifest.xml:11:17-82
	android:name
		ADDED from [:cloud_firestore] /Users/santiagosuarez/AndroidStudioProjects/roma/build/cloud_firestore/intermediates/merged_manifests/debug/processDebugManifest/merged/AndroidManifest.xml:10:17-133
meta-data#com.google.firebase.components:io.flutter.plugins.firebase.core.FlutterFirebaseAppRegistrar
ADDED from [:firebase_core] /Users/santiagosuarez/AndroidStudioProjects/roma/build/firebase_core/intermediates/merged_manifests/debug/processDebugManifest/merged/AndroidManifest.xml:9:13-11:85
	android:value
		ADDED from [:firebase_core] /Users/santiagosuarez/AndroidStudioProjects/roma/build/firebase_core/intermediates/merged_manifests/debug/processDebugManifest/merged/AndroidManifest.xml:11:17-82
	android:name
		ADDED from [:firebase_core] /Users/santiagosuarez/AndroidStudioProjects/roma/build/firebase_core/intermediates/merged_manifests/debug/processDebugManifest/merged/AndroidManifest.xml:10:17-123
uses-permission#android.permission.ACCESS_NETWORK_STATE
ADDED from [com.google.android.gms:play-services-measurement:17.0.1] /Users/santiagosuarez/.gradle/caches/transforms-2/files-2.1/2d60ff019c84e78305443ec42df9eaf1/AndroidManifest.xml:24:5-79
MERGED from [com.google.android.gms:play-services-measurement-api:17.0.1] /Users/santiagosuarez/.gradle/caches/transforms-2/files-2.1/f069c802c787dd4e956e5b4c12dce8a3/AndroidManifest.xml:23:5-79
MERGED from [com.google.android.gms:play-services-measurement-api:17.0.1] /Users/santiagosuarez/.gradle/caches/transforms-2/files-2.1/f069c802c787dd4e956e5b4c12dce8a3/AndroidManifest.xml:23:5-79
MERGED from [com.google.android.gms:play-services-measurement-impl:17.0.1] /Users/santiagosuarez/.gradle/caches/transforms-2/files-2.1/94fdb6e558a7f4c56d47a96d2b5aec6a/AndroidManifest.xml:24:5-79
MERGED from [com.google.android.gms:play-services-measurement-impl:17.0.1] /Users/santiagosuarez/.gradle/caches/transforms-2/files-2.1/94fdb6e558a7f4c56d47a96d2b5aec6a/AndroidManifest.xml:24:5-79
MERGED from [com.google.firebase:firebase-iid:19.0.0] /Users/santiagosuarez/.gradle/caches/transforms-2/files-2.1/c2773839ebd2875acc9742b5c7a06e96/AndroidManifest.xml:22:5-79
MERGED from [com.google.firebase:firebase-iid:19.0.0] /Users/santiagosuarez/.gradle/caches/transforms-2/files-2.1/c2773839ebd2875acc9742b5c7a06e96/AndroidManifest.xml:22:5-79
MERGED from [com.google.firebase:firebase-firestore:21.3.0] /Users/santiagosuarez/.gradle/caches/transforms-2/files-2.1/1a7dc1f2fc479a965f9ab8cfc01a1234/AndroidManifest.xml:13:5-79
MERGED from [com.google.firebase:firebase-firestore:21.3.0] /Users/santiagosuarez/.gradle/caches/transforms-2/files-2.1/1a7dc1f2fc479a965f9ab8cfc01a1234/AndroidManifest.xml:13:5-79
MERGED from [com.google.android.gms:play-services-measurement-sdk-api:17.0.1] /Users/santiagosuarez/.gradle/caches/transforms-2/files-2.1/c47fdf798b2e02ed8c0c8d1af4a0b830/AndroidManifest.xml:24:5-79
MERGED from [com.google.android.gms:play-services-measurement-sdk-api:17.0.1] /Users/santiagosuarez/.gradle/caches/transforms-2/files-2.1/c47fdf798b2e02ed8c0c8d1af4a0b830/AndroidManifest.xml:24:5-79
MERGED from [io.grpc:grpc-android:1.21.0] /Users/santiagosuarez/.gradle/caches/transforms-2/files-2.1/c9d870970b6352355167419d6f53a644/AndroidManifest.xml:11:5-79
MERGED from [io.grpc:grpc-android:1.21.0] /Users/santiagosuarez/.gradle/caches/transforms-2/files-2.1/c9d870970b6352355167419d6f53a644/AndroidManifest.xml:11:5-79
	android:name
		ADDED from [com.google.android.gms:play-services-measurement:17.0.1] /Users/santiagosuarez/.gradle/caches/transforms-2/files-2.1/2d60ff019c84e78305443ec42df9eaf1/AndroidManifest.xml:24:22-76
uses-permission#android.permission.WAKE_LOCK
ADDED from [com.google.android.gms:play-services-measurement:17.0.1] /Users/santiagosuarez/.gradle/caches/transforms-2/files-2.1/2d60ff019c84e78305443ec42df9eaf1/AndroidManifest.xml:25:5-68
MERGED from [com.google.android.gms:play-services-measurement-api:17.0.1] /Users/santiagosuarez/.gradle/caches/transforms-2/files-2.1/f069c802c787dd4e956e5b4c12dce8a3/AndroidManifest.xml:24:5-68
MERGED from [com.google.android.gms:play-services-measurement-api:17.0.1] /Users/santiagosuarez/.gradle/caches/transforms-2/files-2.1/f069c802c787dd4e956e5b4c12dce8a3/AndroidManifest.xml:24:5-68
MERGED from [com.google.android.gms:play-services-measurement-impl:17.0.1] /Users/santiagosuarez/.gradle/caches/transforms-2/files-2.1/94fdb6e558a7f4c56d47a96d2b5aec6a/AndroidManifest.xml:25:5-68
MERGED from [com.google.android.gms:play-services-measurement-impl:17.0.1] /Users/santiagosuarez/.gradle/caches/transforms-2/files-2.1/94fdb6e558a7f4c56d47a96d2b5aec6a/AndroidManifest.xml:25:5-68
MERGED from [com.google.firebase:firebase-iid:19.0.0] /Users/santiagosuarez/.gradle/caches/transforms-2/files-2.1/c2773839ebd2875acc9742b5c7a06e96/AndroidManifest.xml:24:5-68
MERGED from [com.google.firebase:firebase-iid:19.0.0] /Users/santiagosuarez/.gradle/caches/transforms-2/files-2.1/c2773839ebd2875acc9742b5c7a06e96/AndroidManifest.xml:24:5-68
MERGED from [com.google.android.gms:play-services-measurement-sdk-api:17.0.1] /Users/santiagosuarez/.gradle/caches/transforms-2/files-2.1/c47fdf798b2e02ed8c0c8d1af4a0b830/AndroidManifest.xml:25:5-68
MERGED from [com.google.android.gms:play-services-measurement-sdk-api:17.0.1] /Users/santiagosuarez/.gradle/caches/transforms-2/files-2.1/c47fdf798b2e02ed8c0c8d1af4a0b830/AndroidManifest.xml:25:5-68
	android:name
		ADDED from [com.google.android.gms:play-services-measurement:17.0.1] /Users/santiagosuarez/.gradle/caches/transforms-2/files-2.1/2d60ff019c84e78305443ec42df9eaf1/AndroidManifest.xml:25:22-65
uses-permission#com.google.android.finsky.permission.BIND_GET_INSTALL_REFERRER_SERVICE
ADDED from [com.google.android.gms:play-services-measurement:17.0.1] /Users/santiagosuarez/.gradle/caches/transforms-2/files-2.1/2d60ff019c84e78305443ec42df9eaf1/AndroidManifest.xml:26:5-110
MERGED from [com.google.android.gms:play-services-measurement-impl:17.0.1] /Users/santiagosuarez/.gradle/caches/transforms-2/files-2.1/94fdb6e558a7f4c56d47a96d2b5aec6a/AndroidManifest.xml:26:5-110
MERGED from [com.google.android.gms:play-services-measurement-impl:17.0.1] /Users/santiagosuarez/.gradle/caches/transforms-2/files-2.1/94fdb6e558a7f4c56d47a96d2b5aec6a/AndroidManifest.xml:26:5-110
MERGED from [com.google.android.gms:play-services-measurement-sdk-api:17.0.1] /Users/santiagosuarez/.gradle/caches/transforms-2/files-2.1/c47fdf798b2e02ed8c0c8d1af4a0b830/AndroidManifest.xml:26:5-110
MERGED from [com.google.android.gms:play-services-measurement-sdk-api:17.0.1] /Users/santiagosuarez/.gradle/caches/transforms-2/files-2.1/c47fdf798b2e02ed8c0c8d1af4a0b830/AndroidManifest.xml:26:5-110
	android:name
		ADDED from [com.google.android.gms:play-services-measurement:17.0.1] /Users/santiagosuarez/.gradle/caches/transforms-2/files-2.1/2d60ff019c84e78305443ec42df9eaf1/AndroidManifest.xml:26:22-107
receiver#com.google.android.gms.measurement.AppMeasurementReceiver
ADDED from [com.google.android.gms:play-services-measurement:17.0.1] /Users/santiagosuarez/.gradle/caches/transforms-2/files-2.1/2d60ff019c84e78305443ec42df9eaf1/AndroidManifest.xml:29:9-33:20
	android:enabled
		ADDED from [com.google.android.gms:play-services-measurement:17.0.1] /Users/santiagosuarez/.gradle/caches/transforms-2/files-2.1/2d60ff019c84e78305443ec42df9eaf1/AndroidManifest.xml:31:13-35
	android:exported
		ADDED from [com.google.android.gms:play-services-measurement:17.0.1] /Users/santiagosuarez/.gradle/caches/transforms-2/files-2.1/2d60ff019c84e78305443ec42df9eaf1/AndroidManifest.xml:32:13-37
	android:name
		ADDED from [com.google.android.gms:play-services-measurement:17.0.1] /Users/santiagosuarez/.gradle/caches/transforms-2/files-2.1/2d60ff019c84e78305443ec42df9eaf1/AndroidManifest.xml:30:13-85
receiver#com.google.android.gms.measurement.AppMeasurementInstallReferrerReceiver
ADDED from [com.google.android.gms:play-services-measurement:17.0.1] /Users/santiagosuarez/.gradle/caches/transforms-2/files-2.1/2d60ff019c84e78305443ec42df9eaf1/AndroidManifest.xml:34:9-42:20
MERGED from [com.google.android.gms:play-services-measurement-impl:17.0.1] /Users/santiagosuarez/.gradle/caches/transforms-2/files-2.1/94fdb6e558a7f4c56d47a96d2b5aec6a/AndroidManifest.xml:29:9-37:20
MERGED from [com.google.android.gms:play-services-measurement-impl:17.0.1] /Users/santiagosuarez/.gradle/caches/transforms-2/files-2.1/94fdb6e558a7f4c56d47a96d2b5aec6a/AndroidManifest.xml:29:9-37:20
MERGED from [com.google.android.gms:play-services-measurement-sdk-api:17.0.1] /Users/santiagosuarez/.gradle/caches/transforms-2/files-2.1/c47fdf798b2e02ed8c0c8d1af4a0b830/AndroidManifest.xml:29:9-37:20
MERGED from [com.google.android.gms:play-services-measurement-sdk-api:17.0.1] /Users/santiagosuarez/.gradle/caches/transforms-2/files-2.1/c47fdf798b2e02ed8c0c8d1af4a0b830/AndroidManifest.xml:29:9-37:20
	android:enabled
		ADDED from [com.google.android.gms:play-services-measurement:17.0.1] /Users/santiagosuarez/.gradle/caches/transforms-2/files-2.1/2d60ff019c84e78305443ec42df9eaf1/AndroidManifest.xml:36:13-35
	android:exported
		ADDED from [com.google.android.gms:play-services-measurement:17.0.1] /Users/santiagosuarez/.gradle/caches/transforms-2/files-2.1/2d60ff019c84e78305443ec42df9eaf1/AndroidManifest.xml:37:13-36
	android:permission
		ADDED from [com.google.android.gms:play-services-measurement:17.0.1] /Users/santiagosuarez/.gradle/caches/transforms-2/files-2.1/2d60ff019c84e78305443ec42df9eaf1/AndroidManifest.xml:38:13-69
	android:name
		ADDED from [com.google.android.gms:play-services-measurement:17.0.1] /Users/santiagosuarez/.gradle/caches/transforms-2/files-2.1/2d60ff019c84e78305443ec42df9eaf1/AndroidManifest.xml:35:13-100
intent-filter#action:name:com.android.vending.INSTALL_REFERRER
ADDED from [com.google.android.gms:play-services-measurement:17.0.1] /Users/santiagosuarez/.gradle/caches/transforms-2/files-2.1/2d60ff019c84e78305443ec42df9eaf1/AndroidManifest.xml:39:13-41:29
action#com.android.vending.INSTALL_REFERRER
ADDED from [com.google.android.gms:play-services-measurement:17.0.1] /Users/santiagosuarez/.gradle/caches/transforms-2/files-2.1/2d60ff019c84e78305443ec42df9eaf1/AndroidManifest.xml:40:17-79
	android:name
		ADDED from [com.google.android.gms:play-services-measurement:17.0.1] /Users/santiagosuarez/.gradle/caches/transforms-2/files-2.1/2d60ff019c84e78305443ec42df9eaf1/AndroidManifest.xml:40:25-76
service#com.google.android.gms.measurement.AppMeasurementService
ADDED from [com.google.android.gms:play-services-measurement:17.0.1] /Users/santiagosuarez/.gradle/caches/transforms-2/files-2.1/2d60ff019c84e78305443ec42df9eaf1/AndroidManifest.xml:44:9-47:40
	android:enabled
		ADDED from [com.google.android.gms:play-services-measurement:17.0.1] /Users/santiagosuarez/.gradle/caches/transforms-2/files-2.1/2d60ff019c84e78305443ec42df9eaf1/AndroidManifest.xml:46:13-35
	android:exported
		ADDED from [com.google.android.gms:play-services-measurement:17.0.1] /Users/santiagosuarez/.gradle/caches/transforms-2/files-2.1/2d60ff019c84e78305443ec42df9eaf1/AndroidManifest.xml:47:13-37
	android:name
		ADDED from [com.google.android.gms:play-services-measurement:17.0.1] /Users/santiagosuarez/.gradle/caches/transforms-2/files-2.1/2d60ff019c84e78305443ec42df9eaf1/AndroidManifest.xml:45:13-84
service#com.google.android.gms.measurement.AppMeasurementJobService
ADDED from [com.google.android.gms:play-services-measurement:17.0.1] /Users/santiagosuarez/.gradle/caches/transforms-2/files-2.1/2d60ff019c84e78305443ec42df9eaf1/AndroidManifest.xml:48:9-52:72
	android:enabled
		ADDED from [com.google.android.gms:play-services-measurement:17.0.1] /Users/santiagosuarez/.gradle/caches/transforms-2/files-2.1/2d60ff019c84e78305443ec42df9eaf1/AndroidManifest.xml:50:13-35
	android:exported
		ADDED from [com.google.android.gms:play-services-measurement:17.0.1] /Users/santiagosuarez/.gradle/caches/transforms-2/files-2.1/2d60ff019c84e78305443ec42df9eaf1/AndroidManifest.xml:51:13-37
	android:permission
		ADDED from [com.google.android.gms:play-services-measurement:17.0.1] /Users/santiagosuarez/.gradle/caches/transforms-2/files-2.1/2d60ff019c84e78305443ec42df9eaf1/AndroidManifest.xml:52:13-69
	android:name
		ADDED from [com.google.android.gms:play-services-measurement:17.0.1] /Users/santiagosuarez/.gradle/caches/transforms-2/files-2.1/2d60ff019c84e78305443ec42df9eaf1/AndroidManifest.xml:49:13-87
meta-data#com.google.firebase.components:com.google.firebase.analytics.connector.internal.AnalyticsConnectorRegistrar
ADDED from [com.google.android.gms:play-services-measurement-api:17.0.1] /Users/santiagosuarez/.gradle/caches/transforms-2/files-2.1/f069c802c787dd4e956e5b4c12dce8a3/AndroidManifest.xml:30:13-32:85
	android:value
		ADDED from [com.google.android.gms:play-services-measurement-api:17.0.1] /Users/santiagosuarez/.gradle/caches/transforms-2/files-2.1/f069c802c787dd4e956e5b4c12dce8a3/AndroidManifest.xml:32:17-82
	android:name
		ADDED from [com.google.android.gms:play-services-measurement-api:17.0.1] /Users/santiagosuarez/.gradle/caches/transforms-2/files-2.1/f069c802c787dd4e956e5b4c12dce8a3/AndroidManifest.xml:31:17-139
uses-permission#com.google.android.c2dm.permission.RECEIVE
ADDED from [com.google.firebase:firebase-iid:19.0.0] /Users/santiagosuarez/.gradle/caches/transforms-2/files-2.1/c2773839ebd2875acc9742b5c7a06e96/AndroidManifest.xml:26:5-82
	android:name
		ADDED from [com.google.firebase:firebase-iid:19.0.0] /Users/santiagosuarez/.gradle/caches/transforms-2/files-2.1/c2773839ebd2875acc9742b5c7a06e96/AndroidManifest.xml:26:22-79
meta-data#com.google.firebase.components:com.google.firebase.iid.Registrar
ADDED from [com.google.firebase:firebase-iid:19.0.0] /Users/santiagosuarez/.gradle/caches/transforms-2/files-2.1/c2773839ebd2875acc9742b5c7a06e96/AndroidManifest.xml:32:13-34:85
	android:value
		ADDED from [com.google.firebase:firebase-iid:19.0.0] /Users/santiagosuarez/.gradle/caches/transforms-2/files-2.1/c2773839ebd2875acc9742b5c7a06e96/AndroidManifest.xml:34:17-82
	android:name
		ADDED from [com.google.firebase:firebase-iid:19.0.0] /Users/santiagosuarez/.gradle/caches/transforms-2/files-2.1/c2773839ebd2875acc9742b5c7a06e96/AndroidManifest.xml:33:17-96
receiver#com.google.firebase.iid.FirebaseInstanceIdReceiver
ADDED from [com.google.firebase:firebase-iid:19.0.0] /Users/santiagosuarez/.gradle/caches/transforms-2/files-2.1/c2773839ebd2875acc9742b5c7a06e96/AndroidManifest.xml:37:9-44:20
	android:exported
		ADDED from [com.google.firebase:firebase-iid:19.0.0] /Users/santiagosuarez/.gradle/caches/transforms-2/files-2.1/c2773839ebd2875acc9742b5c7a06e96/AndroidManifest.xml:39:13-36
	android:permission
		ADDED from [com.google.firebase:firebase-iid:19.0.0] /Users/santiagosuarez/.gradle/caches/transforms-2/files-2.1/c2773839ebd2875acc9742b5c7a06e96/AndroidManifest.xml:40:13-73
	android:name
		ADDED from [com.google.firebase:firebase-iid:19.0.0] /Users/santiagosuarez/.gradle/caches/transforms-2/files-2.1/c2773839ebd2875acc9742b5c7a06e96/AndroidManifest.xml:38:13-78
intent-filter#action:name:com.google.android.c2dm.intent.RECEIVE
ADDED from [com.google.firebase:firebase-iid:19.0.0] /Users/santiagosuarez/.gradle/caches/transforms-2/files-2.1/c2773839ebd2875acc9742b5c7a06e96/AndroidManifest.xml:41:13-43:29
action#com.google.android.c2dm.intent.RECEIVE
ADDED from [com.google.firebase:firebase-iid:19.0.0] /Users/santiagosuarez/.gradle/caches/transforms-2/files-2.1/c2773839ebd2875acc9742b5c7a06e96/AndroidManifest.xml:42:17-81
	android:name
		ADDED from [com.google.firebase:firebase-iid:19.0.0] /Users/santiagosuarez/.gradle/caches/transforms-2/files-2.1/c2773839ebd2875acc9742b5c7a06e96/AndroidManifest.xml:42:25-78
activity#com.google.firebase.auth.internal.FederatedSignInActivity
ADDED from [com.google.firebase:firebase-auth:17.0.0] /Users/santiagosuarez/.gradle/caches/transforms-2/files-2.1/869b2d77646b04a917f84c1e2a39b6c4/AndroidManifest.xml:24:9-31:50
	android:excludeFromRecents
		ADDED from [com.google.firebase:firebase-auth:17.0.0] /Users/santiagosuarez/.gradle/caches/transforms-2/files-2.1/869b2d77646b04a917f84c1e2a39b6c4/AndroidManifest.xml:26:13-46
	android:launchMode
		ADDED from [com.google.firebase:firebase-auth:17.0.0] /Users/santiagosuarez/.gradle/caches/transforms-2/files-2.1/869b2d77646b04a917f84c1e2a39b6c4/AndroidManifest.xml:28:13-44
	android:exported
		ADDED from [com.google.firebase:firebase-auth:17.0.0] /Users/santiagosuarez/.gradle/caches/transforms-2/files-2.1/869b2d77646b04a917f84c1e2a39b6c4/AndroidManifest.xml:27:13-36
	android:permission
		ADDED from [com.google.firebase:firebase-auth:17.0.0] /Users/santiagosuarez/.gradle/caches/transforms-2/files-2.1/869b2d77646b04a917f84c1e2a39b6c4/AndroidManifest.xml:29:13-102
	android:theme
		ADDED from [com.google.firebase:firebase-auth:17.0.0] /Users/santiagosuarez/.gradle/caches/transforms-2/files-2.1/869b2d77646b04a917f84c1e2a39b6c4/AndroidManifest.xml:30:13-72
	tools:replace
		ADDED from [com.google.firebase:firebase-auth:17.0.0] /Users/santiagosuarez/.gradle/caches/transforms-2/files-2.1/869b2d77646b04a917f84c1e2a39b6c4/AndroidManifest.xml:31:13-47
	android:name
		ADDED from [com.google.firebase:firebase-auth:17.0.0] /Users/santiagosuarez/.gradle/caches/transforms-2/files-2.1/869b2d77646b04a917f84c1e2a39b6c4/AndroidManifest.xml:25:13-85
meta-data#com.google.firebase.components:com.google.firebase.auth.FirebaseAuthRegistrar
ADDED from [com.google.firebase:firebase-auth:17.0.0] /Users/santiagosuarez/.gradle/caches/transforms-2/files-2.1/869b2d77646b04a917f84c1e2a39b6c4/AndroidManifest.xml:36:13-38:85
	android:value
		ADDED from [com.google.firebase:firebase-auth:17.0.0] /Users/santiagosuarez/.gradle/caches/transforms-2/files-2.1/869b2d77646b04a917f84c1e2a39b6c4/AndroidManifest.xml:38:17-82
	android:name
		ADDED from [com.google.firebase:firebase-auth:17.0.0] /Users/santiagosuarez/.gradle/caches/transforms-2/files-2.1/869b2d77646b04a917f84c1e2a39b6c4/AndroidManifest.xml:37:17-109
meta-data#com.google.firebase.components:com.google.firebase.firestore.FirestoreRegistrar
ADDED from [com.google.firebase:firebase-firestore:21.3.0] /Users/santiagosuarez/.gradle/caches/transforms-2/files-2.1/1a7dc1f2fc479a965f9ab8cfc01a1234/AndroidManifest.xml:20:13-22:85
	android:value
		ADDED from [com.google.firebase:firebase-firestore:21.3.0] /Users/santiagosuarez/.gradle/caches/transforms-2/files-2.1/1a7dc1f2fc479a965f9ab8cfc01a1234/AndroidManifest.xml:22:17-82
	android:name
		ADDED from [com.google.firebase:firebase-firestore:21.3.0] /Users/santiagosuarez/.gradle/caches/transforms-2/files-2.1/1a7dc1f2fc479a965f9ab8cfc01a1234/AndroidManifest.xml:21:17-111
provider#com.google.firebase.provider.FirebaseInitProvider
ADDED from [com.google.firebase:firebase-common:19.3.0] /Users/santiagosuarez/.gradle/caches/transforms-2/files-2.1/034a74f2bb94dc75c22b8d45d7d73d48/AndroidManifest.xml:26:9-30:39
	android:authorities
		ADDED from [com.google.firebase:firebase-common:19.3.0] /Users/santiagosuarez/.gradle/caches/transforms-2/files-2.1/034a74f2bb94dc75c22b8d45d7d73d48/AndroidManifest.xml:28:13-72
	android:exported
		ADDED from [com.google.firebase:firebase-common:19.3.0] /Users/santiagosuarez/.gradle/caches/transforms-2/files-2.1/034a74f2bb94dc75c22b8d45d7d73d48/AndroidManifest.xml:29:13-37
	android:initOrder
		ADDED from [com.google.firebase:firebase-common:19.3.0] /Users/santiagosuarez/.gradle/caches/transforms-2/files-2.1/034a74f2bb94dc75c22b8d45d7d73d48/AndroidManifest.xml:30:13-36
	android:name
		ADDED from [com.google.firebase:firebase-common:19.3.0] /Users/santiagosuarez/.gradle/caches/transforms-2/files-2.1/034a74f2bb94dc75c22b8d45d7d73d48/AndroidManifest.xml:27:13-77
activity#com.google.android.gms.auth.api.signin.internal.SignInHubActivity
ADDED from [com.google.android.gms:play-services-auth:16.0.1] /Users/santiagosuarez/.gradle/caches/transforms-2/files-2.1/e2b23fcdd85a4a29f9b2a5a64779bbc9/AndroidManifest.xml:23:9-27:75
	android:excludeFromRecents
		ADDED from [com.google.android.gms:play-services-auth:16.0.1] /Users/santiagosuarez/.gradle/caches/transforms-2/files-2.1/e2b23fcdd85a4a29f9b2a5a64779bbc9/AndroidManifest.xml:25:13-46
	android:exported
		ADDED from [com.google.android.gms:play-services-auth:16.0.1] /Users/santiagosuarez/.gradle/caches/transforms-2/files-2.1/e2b23fcdd85a4a29f9b2a5a64779bbc9/AndroidManifest.xml:26:13-37
	android:theme
		ADDED from [com.google.android.gms:play-services-auth:16.0.1] /Users/santiagosuarez/.gradle/caches/transforms-2/files-2.1/e2b23fcdd85a4a29f9b2a5a64779bbc9/AndroidManifest.xml:27:13-72
	android:name
		ADDED from [com.google.android.gms:play-services-auth:16.0.1] /Users/santiagosuarez/.gradle/caches/transforms-2/files-2.1/e2b23fcdd85a4a29f9b2a5a64779bbc9/AndroidManifest.xml:24:13-93
service#com.google.android.gms.auth.api.signin.RevocationBoundService
ADDED from [com.google.android.gms:play-services-auth:16.0.1] /Users/santiagosuarez/.gradle/caches/transforms-2/files-2.1/e2b23fcdd85a4a29f9b2a5a64779bbc9/AndroidManifest.xml:33:9-36:110
	android:exported
		ADDED from [com.google.android.gms:play-services-auth:16.0.1] /Users/santiagosuarez/.gradle/caches/transforms-2/files-2.1/e2b23fcdd85a4a29f9b2a5a64779bbc9/AndroidManifest.xml:35:13-36
	android:permission
		ADDED from [com.google.android.gms:play-services-auth:16.0.1] /Users/santiagosuarez/.gradle/caches/transforms-2/files-2.1/e2b23fcdd85a4a29f9b2a5a64779bbc9/AndroidManifest.xml:36:13-107
	android:name
		ADDED from [com.google.android.gms:play-services-auth:16.0.1] /Users/santiagosuarez/.gradle/caches/transforms-2/files-2.1/e2b23fcdd85a4a29f9b2a5a64779bbc9/AndroidManifest.xml:34:13-89
activity#com.google.android.gms.common.api.GoogleApiActivity
ADDED from [com.google.android.gms:play-services-base:17.0.0] /Users/santiagosuarez/.gradle/caches/transforms-2/files-2.1/5b4972036a094b60d85d5f422b1e06af/AndroidManifest.xml:23:9-26:75
	android:exported
		ADDED from [com.google.android.gms:play-services-base:17.0.0] /Users/santiagosuarez/.gradle/caches/transforms-2/files-2.1/5b4972036a094b60d85d5f422b1e06af/AndroidManifest.xml:25:13-37
	android:theme
		ADDED from [com.google.android.gms:play-services-base:17.0.0] /Users/santiagosuarez/.gradle/caches/transforms-2/files-2.1/5b4972036a094b60d85d5f422b1e06af/AndroidManifest.xml:26:13-72
	android:name
		ADDED from [com.google.android.gms:play-services-base:17.0.0] /Users/santiagosuarez/.gradle/caches/transforms-2/files-2.1/5b4972036a094b60d85d5f422b1e06af/AndroidManifest.xml:24:13-79
meta-data#com.google.android.gms.version
ADDED from [com.google.android.gms:play-services-basement:17.0.0] /Users/santiagosuarez/.gradle/caches/transforms-2/files-2.1/b4e2c8acf6a0a2be62a3344707fef1e7/AndroidManifest.xml:23:9-25:69
	android:value
		ADDED from [com.google.android.gms:play-services-basement:17.0.0] /Users/santiagosuarez/.gradle/caches/transforms-2/files-2.1/b4e2c8acf6a0a2be62a3344707fef1e7/AndroidManifest.xml:25:13-66
	android:name
		ADDED from [com.google.android.gms:play-services-basement:17.0.0] /Users/santiagosuarez/.gradle/caches/transforms-2/files-2.1/b4e2c8acf6a0a2be62a3344707fef1e7/AndroidManifest.xml:24:13-58
